What can Australian newspapers tell us about danish immigrants in Australia
…
stopwords <- read_csv("stopwords.txt")
snippets_tidy %>% 
  anti_join(stopwords, by = "word") %>% 
  count(word, sort = TRUE) %>% 
  select(word, n) -> snippets_tidy

snippets_tidy

## # A tibble: 16,130 x 2
##    word            n
##    <chr>       <int>
##  1 mr           1192
##  2 new           549
##  3 last          526
##  4 danish        488
##  5 australia     485
##  6 london        465
##  7 day           414
##  8 tons          375
##  9 immigration   354
## 10 government    327
## #  with 16,120 more rows
…
From this wordcloud we can take, that newspapers were primarily concerned with the political aspects of immigration. This could be interesting to dive further into through a closereading.

Connections

To further investigate what was written about the danish immigrants is to locate the words connected with danish in the snippets. That means that we will try to isolate and illuminate the 5 nearest words to danish in sentences where the word danish occurs.

# In this chunk of code we have built a wordsearcher, that shows the 5 words before and after the word we are searching for. As an example here we are looking for words around the word Danish. 
wordsearcher <- tibble(stringr::str_extract(df$snippet, "([^\\s]+\\s){5}Danish(\\s[^\\s]+){5}"))
wordsearcher[complete.cases(wordsearcher), ]

## # A tibble: 202 x 1
##    `stringr::str_extract(df$snippet, "([^\\\\s]+\\\\s){5}Danish(\\\\s[^\\\\s]+)
##    <chr>                                                                        
##  1 that his efforts to attract Danish farmers has been without success.         
##  2 of Denmark, addressed from the Danish Consulate in Melbourne in regard       
##  3 eel. Dr. Johs. Schmidt, a Danish zoologist, has now filled up                
##  4 Sir,The recent attack of the Danish and Swedish Consuls upon Australia      
##  5 Sir,-The recent attack of the Danish and Swedish Consuls upon Australia      
##  6 Dr. Georg Brandes the great Danish critie has been to the                    
##  7 his imitation to Dutch and Danish migrants to come to Australia;             
##  8 common king. Iceland is a Danish island in North Sea, close                  
##  9 18.It is reported that a Danish steamer, on board of which                  
## 10 cable message, referring to the Danish consul's warning to his countrymen,   
## #  with 192 more rows
…
